{
    "jet_floats": [
        "KtDR",
        "Tau1",
        "Tau2",
        "Tau3",
        "Tau4",
        "Tau1_wta",
        "Tau2_wta",
        "Tau3_wta",
        "Tau4_wta",
        "Tau21",
        "Tau32",
        "Tau42",
        "Tau21_wta",
        "Tau32_wta",
        "Tau42_wta",
        "Split12",
        "Split23",
        "Split34",
        "ZCut12",
        "ZCut23",
        "ZCut34",
        "Angularity",
        "PlanarFlow",
        "ECF1",
        "ECF2",
        "ECF3",
        "C1",
        "C2",
        "D2",
        "ECFG_2_1",
        "ECFG_3_2",
        "ECFG_3_1",
        "ECFG_4_2",
        "ECFG_3_3_2",
        "ECFG_3_2_2",
        "ECFG_3_3_1",
        "ECFG_4_2_2",
        "ECFG_4_4_1",
        "ECFG_2_1_2",
        "ECFG_3_2_1",
        "ECFG_3_1_1",
        "N2",
        "N3",
        "M2",
        "L1",
        "L2",
        "L3",
        "L4",
        "L5",
        "ThrustMin",
        "ThrustMaj",
        "FoxWolfram0",
        "FoxWolfram1",
        "FoxWolfram2",
        "FoxWolfram3",
        "FoxWolfram4",
        "Sphericity",
        "Aplanarity"
    ]
}